{
	"rules":{
		"quotemark": [
			false
		],
		"trailing-comma": [
			false
		],
		"no-bitwise": false,
		"object-literal-sort-keys": false,
		"max-line-length": [
			false
		],
		"radix": false,
		"no-trailing-whitespace": false,
		"member-ordering": [
			false
		],
		"no-console": [
			false
		],
		"no-string-literal": false
	}
}